c:\users\chinn\dropbox\notes\ood\my proj\proj3\tokenizer\debug\tokenizer.pdb
c:\users\chinn\dropbox\notes\ood\my proj\proj3\tokenizer\debug\tokenizer.idb
c:\users\chinn\dropbox\notes\ood\my proj\proj3\tokenizer\debug\utilities.obj
c:\users\chinn\dropbox\notes\ood\my proj\proj3\tokenizer\debug\tokenizer.obj
c:\users\chinn\dropbox\notes\ood\my proj\proj3\debug\tokenizer.lib
c:\users\chinn\dropbox\notes\ood\my proj\proj3\debug\tokenizer.pdb
c:\users\chinn\dropbox\notes\ood\my proj\proj3\tokenizer\debug\tokenizer.tlog\cl.command.1.tlog
c:\users\chinn\dropbox\notes\ood\my proj\proj3\tokenizer\debug\tokenizer.tlog\cl.read.1.tlog
c:\users\chinn\dropbox\notes\ood\my proj\proj3\tokenizer\debug\tokenizer.tlog\cl.write.1.tlog
c:\users\chinn\dropbox\notes\ood\my proj\proj3\tokenizer\debug\tokenizer.tlog\lib-link.read.1.tlog
c:\users\chinn\dropbox\notes\ood\my proj\proj3\tokenizer\debug\tokenizer.tlog\lib-link.write.1.tlog
c:\users\chinn\dropbox\notes\ood\my proj\proj3\tokenizer\debug\tokenizer.tlog\lib.command.1.tlog
