^C:\USERS\CHINN\DROPBOX\NOTES\OOD\EX PROJ\CODEANALYZEREX\ABSTRACTSYNTAXTREE\ABSTRSYNTREE.CPP|C:\USERS\CHINN\DROPBOX\NOTES\OOD\EX PROJ\CODEANALYZEREX\ANALYZER\DEPANAL.CPP|C:\USERS\CHINN\DROPBOX\NOTES\OOD\EX PROJ\CODEANALYZEREX\ANALYZER\EXECUTIVE.CPP|C:\USERS\CHINN\DROPBOX\NOTES\OOD\EX PROJ\CODEANALYZEREX\FILEMGR\FILEMGR.CPP|C:\USERS\CHINN\DROPBOX\NOTES\OOD\EX PROJ\CODEANALYZEREX\FILESYSTEM\FILESYSTEM.CPP|C:\USERS\CHINN\DROPBOX\NOTES\OOD\EX PROJ\CODEANALYZEREX\GRAMMARHELPERS\GRAMMARHELPERS.CPP|C:\USERS\CHINN\DROPBOX\NOTES\OOD\EX PROJ\CODEANALYZEREX\LOGGER\LOGGER.CPP|C:\USERS\CHINN\DROPBOX\NOTES\OOD\EX PROJ\CODEANALYZEREX\PARSER\ACTIONSANDRULES.CPP|C:\USERS\CHINN\DROPBOX\NOTES\OOD\EX PROJ\CODEANALYZEREX\PARSER\CONFIGUREPARSER.CPP|C:\USERS\CHINN\DROPBOX\NOTES\OOD\EX PROJ\CODEANALYZEREX\PARSER\PARSER.CPP|C:\USERS\CHINN\DROPBOX\NOTES\OOD\EX PROJ\CODEANALYZEREX\SCOPESTACK\SCOPESTACK.CPP|C:\USERS\CHINN\DROPBOX\NOTES\OOD\EX PROJ\CODEANALYZEREX\SEMIEXP\SEMIEXP.CPP|C:\USERS\CHINN\DROPBOX\NOTES\OOD\EX PROJ\CODEANALYZEREX\TOKENIZER\TOKENIZER.CPP|C:\USERS\CHINN\DROPBOX\NOTES\OOD\EX PROJ\CODEANALYZEREX\UTILITIES\UTILITIES.CPP
C:\USERS\CHINN\DROPBOX\NOTES\OOD\EX PROJ\CODEANALYZEREX\ANALYZER\X64\DEBUG\VC140.PDB
C:\USERS\CHINN\DROPBOX\NOTES\OOD\EX PROJ\CODEANALYZEREX\ANALYZER\X64\DEBUG\VC140.IDB
C:\USERS\CHINN\DROPBOX\NOTES\OOD\EX PROJ\CODEANALYZEREX\ANALYZER\X64\DEBUG\ABSTRSYNTREE.OBJ
C:\USERS\CHINN\DROPBOX\NOTES\OOD\EX PROJ\CODEANALYZEREX\ANALYZER\X64\DEBUG\FILEMGR.OBJ
C:\USERS\CHINN\DROPBOX\NOTES\OOD\EX PROJ\CODEANALYZEREX\ANALYZER\X64\DEBUG\FILESYSTEM.OBJ
C:\USERS\CHINN\DROPBOX\NOTES\OOD\EX PROJ\CODEANALYZEREX\ANALYZER\X64\DEBUG\GRAMMARHELPERS.OBJ
C:\USERS\CHINN\DROPBOX\NOTES\OOD\EX PROJ\CODEANALYZEREX\ANALYZER\X64\DEBUG\LOGGER.OBJ
C:\USERS\CHINN\DROPBOX\NOTES\OOD\EX PROJ\CODEANALYZEREX\ANALYZER\X64\DEBUG\ACTIONSANDRULES.OBJ
C:\USERS\CHINN\DROPBOX\NOTES\OOD\EX PROJ\CODEANALYZEREX\ANALYZER\X64\DEBUG\CONFIGUREPARSER.OBJ
C:\USERS\CHINN\DROPBOX\NOTES\OOD\EX PROJ\CODEANALYZEREX\ANALYZER\X64\DEBUG\PARSER.OBJ
C:\USERS\CHINN\DROPBOX\NOTES\OOD\EX PROJ\CODEANALYZEREX\ANALYZER\X64\DEBUG\SCOPESTACK.OBJ
C:\USERS\CHINN\DROPBOX\NOTES\OOD\EX PROJ\CODEANALYZEREX\ANALYZER\X64\DEBUG\SEMIEXP.OBJ
C:\USERS\CHINN\DROPBOX\NOTES\OOD\EX PROJ\CODEANALYZEREX\ANALYZER\X64\DEBUG\TOKENIZER.OBJ
C:\USERS\CHINN\DROPBOX\NOTES\OOD\EX PROJ\CODEANALYZEREX\ANALYZER\X64\DEBUG\UTILITIES.OBJ
C:\USERS\CHINN\DROPBOX\NOTES\OOD\EX PROJ\CODEANALYZEREX\ANALYZER\X64\DEBUG\DEPANAL.OBJ
C:\USERS\CHINN\DROPBOX\NOTES\OOD\EX PROJ\CODEANALYZEREX\ANALYZER\X64\DEBUG\EXECUTIVE.OBJ
^C:\USERS\CHINN\DROPBOX\NOTES\OOD\EX PROJ\CODEANALYZEREX\ABSTRACTSYNTAXTREE\ABSTRSYNTREE.CPP
C:\USERS\CHINN\DROPBOX\NOTES\OOD\EX PROJ\CODEANALYZEREX\ANALYZER\X64\DEBUG\VC140.PDB
^C:\USERS\CHINN\DROPBOX\NOTES\OOD\EX PROJ\CODEANALYZEREX\FILEMGR\FILEMGR.CPP
C:\USERS\CHINN\DROPBOX\NOTES\OOD\EX PROJ\CODEANALYZEREX\ANALYZER\X64\DEBUG\VC140.PDB
^C:\USERS\CHINN\DROPBOX\NOTES\OOD\EX PROJ\CODEANALYZEREX\FILESYSTEM\FILESYSTEM.CPP
C:\USERS\CHINN\DROPBOX\NOTES\OOD\EX PROJ\CODEANALYZEREX\ANALYZER\X64\DEBUG\VC140.PDB
^C:\USERS\CHINN\DROPBOX\NOTES\OOD\EX PROJ\CODEANALYZEREX\GRAMMARHELPERS\GRAMMARHELPERS.CPP
C:\USERS\CHINN\DROPBOX\NOTES\OOD\EX PROJ\CODEANALYZEREX\ANALYZER\X64\DEBUG\VC140.PDB
^C:\USERS\CHINN\DROPBOX\NOTES\OOD\EX PROJ\CODEANALYZEREX\LOGGER\LOGGER.CPP
C:\USERS\CHINN\DROPBOX\NOTES\OOD\EX PROJ\CODEANALYZEREX\ANALYZER\X64\DEBUG\VC140.PDB
^C:\USERS\CHINN\DROPBOX\NOTES\OOD\EX PROJ\CODEANALYZEREX\PARSER\ACTIONSANDRULES.CPP
C:\USERS\CHINN\DROPBOX\NOTES\OOD\EX PROJ\CODEANALYZEREX\ANALYZER\X64\DEBUG\VC140.PDB
^C:\USERS\CHINN\DROPBOX\NOTES\OOD\EX PROJ\CODEANALYZEREX\PARSER\CONFIGUREPARSER.CPP
C:\USERS\CHINN\DROPBOX\NOTES\OOD\EX PROJ\CODEANALYZEREX\ANALYZER\X64\DEBUG\VC140.PDB
^C:\USERS\CHINN\DROPBOX\NOTES\OOD\EX PROJ\CODEANALYZEREX\PARSER\PARSER.CPP
C:\USERS\CHINN\DROPBOX\NOTES\OOD\EX PROJ\CODEANALYZEREX\ANALYZER\X64\DEBUG\VC140.PDB
^C:\USERS\CHINN\DROPBOX\NOTES\OOD\EX PROJ\CODEANALYZEREX\SCOPESTACK\SCOPESTACK.CPP
C:\USERS\CHINN\DROPBOX\NOTES\OOD\EX PROJ\CODEANALYZEREX\ANALYZER\X64\DEBUG\VC140.PDB
^C:\USERS\CHINN\DROPBOX\NOTES\OOD\EX PROJ\CODEANALYZEREX\SEMIEXP\SEMIEXP.CPP
C:\USERS\CHINN\DROPBOX\NOTES\OOD\EX PROJ\CODEANALYZEREX\ANALYZER\X64\DEBUG\VC140.PDB
^C:\USERS\CHINN\DROPBOX\NOTES\OOD\EX PROJ\CODEANALYZEREX\TOKENIZER\TOKENIZER.CPP
C:\USERS\CHINN\DROPBOX\NOTES\OOD\EX PROJ\CODEANALYZEREX\ANALYZER\X64\DEBUG\VC140.PDB
^C:\USERS\CHINN\DROPBOX\NOTES\OOD\EX PROJ\CODEANALYZEREX\UTILITIES\UTILITIES.CPP
C:\USERS\CHINN\DROPBOX\NOTES\OOD\EX PROJ\CODEANALYZEREX\ANALYZER\X64\DEBUG\VC140.PDB
^C:\USERS\CHINN\DROPBOX\NOTES\OOD\EX PROJ\CODEANALYZEREX\ANALYZER\DEPANAL.CPP
C:\USERS\CHINN\DROPBOX\NOTES\OOD\EX PROJ\CODEANALYZEREX\ANALYZER\X64\DEBUG\VC140.PDB
^C:\USERS\CHINN\DROPBOX\NOTES\OOD\EX PROJ\CODEANALYZEREX\ANALYZER\EXECUTIVE.CPP
C:\USERS\CHINN\DROPBOX\NOTES\OOD\EX PROJ\CODEANALYZEREX\ANALYZER\X64\DEBUG\VC140.PDB
